0.000232941 0.000695558 0 0.000695558
0.0002376 0.000681611 4.0382e-05 0.000593329
0.000242352 0.000682411 5.7958e-05 0.000556589
0.000247199 0.000685744 7.24156e-05 0.000529651
0.000252143 0.000690605 8.49571e-05 0.000508833
0.000257186 0.000696317 9.66035e-05 0.000491197
0.000262329 0.000702597 0.000107755 0.000475575
0.000267576 0.000709304 0.000118395 0.000461867
0.000272928 0.000716302 0.00012872 0.000449501
0.000278386 0.000723489 0.000138719 0.000438405
0.000283954 0.000730771 0.000148593 0.000428046
0.000289633 0.00073812 0.000158119 0.000418886
0.000295426 0.000745423 0.00016771 0.000409901
0.000301334 0.000752693 0.000177145 0.000401593
0.000307361 0.000759861 0.000186623 0.000393445
0.000313508 0.000766969 0.000195927 0.000385977
0.000319778 0.000773955 0.000205254 0.000378685
0.000326174 0.000780872 0.000214389 0.000372088
0.000332697 0.000787672 0.000223745 0.000365225
0.000339351 0.000794413 0.000232894 0.000359088
0.000346138 0.000801118 0.000242048 0.000353234
0.000353061 0.000807785 0.000251411 0.000347201
0.000360122 0.00081448 0.000260777 0.000341513
0.000367324 0.000821221 0.000270145 0.000336188
0.000374671 0.000828052 0.000279732 0.000330796
0.000382164 0.000835025 0.000289338 0.00032584
0.000389808 0.00084217 0.000299178 0.000320878
0.000397604 0.000849541 0.000309266 0.000315947
0.000405556 0.000857168 0.000319403 0.00031153
0.000413667 0.000865113 0.000330025 0.00030674
0.00042194 0.000873392 0.000340726 0.000302509
0.000430379 0.000882057 0.000351735 0.000298403
0.000438987 0.000891142 0.000363068 0.00029444
0.000447767 0.000900676 0.000374742 0.000290632
0.000456722 0.000910699 0.000386782 0.000286995
0.000465856 0.00092126 0.000399416 0.000283095
0.000475173 0.000932329 0.000412237 0.00027982
0.000484677 0.000943996 0.000425698 0.000276302
0.00049437 0.000956216 0.000439388 0.000273416
0.000504258 0.000969073 0.000453756 0.000270291
0.000514343 0.000982562 0.000468616 0.000267367
0.00052463 0.000996705 0.000484186 0.000264198
0.000535122 0.00101149 0.000500083 0.000261666
0.000545825 0.00102697 0.000516739 0.00025889
0.000556741 0.00104312 0.000533964 0.0002563
0.000567876 0.00105999 0.000551792 0.000253899
0.000579234 0.00107752 0.00057022 0.000251664
0.000590818 0.00109583 0.000589509 0.000249179
0.000602635 0.00111479 0.000609234 0.00024728
0.000614687 0.00113453 0.000629855 0.000245114
0.000626981 0.001155 0.000651185 0.000243102
0.000639521 0.00117617 0.00067321 0.000241218
0.000652311 0.00119816 0.000696214 0.000239058
0.000665357 0.00122081 0.000719747 0.000237437
0.000678665 0.00124428 0.000744298 0.000235524
0.000692238 0.00126843 0.000769427 0.000234136
0.000706083 0.0012934 0.000795611 0.000232439
0.000720204 0.00131912 0.000822639 0.000230838
0.000734608 0.0013456 0.000850542 0.000229329
0.000749301 0.00137286 0.00087936 0.000227911
0.000764287 0.00140086 0.000909067 0.000226561
0.000779572 0.00142967 0.000939751 0.000225296
0.000795164 0.00145928 0.000971587 0.00022367
0.000811067 0.00148966 0.00100424 0.000222536
0.000827288 0.00152079 0.00103788 0.000221448
0.000843834 0.00155281 0.00107281 0.000220006
0.000860711 0.00158555 0.00110858 0.000219021
0.000877925 0.00161918 0.00114569 0.000217669
0.000895484 0.00165355 0.0011837 0.000216768
0.000913393 0.00168877 0.00122288 0.000215905
0.000931661 0.00172486 0.00126347 0.000214659
0.000950294 0.00176174 0.00130505 0.000213853
0.0009693 0.00179993 0.00134848 0.000212752
0.000988686 0.00183943 0.00139359 0.000211785
0.00100846 0.00187934 0.00143962 0.000210732
0.00102863 0.00191994 0.00148667 0.000210073
0.0010492 0.00196145 0.00153531 0.000209006
0.00107019 0.00200373 0.0015851 0.000208346
0.00109159 0.00204696 0.00163657 0.000207277
0.00111342 0.00209101 0.0016893 0.000206616
0.00113569 0.00213599 0.00174357 0.000205956
0.0011584 0.00218187 0.0017994 0.000205292
0.00118157 0.00222875 0.00185706 0.000204214
0.0012052 0.00227651 0.00191617 0.00020354
0.00122931 0.00232524 0.00197698 0.000202858
0.00125389 0.00237494 0.00203954 0.000202169
0.00127897 0.00242561 0.00210388 0.000201468
0.00130455 0.00247729 0.00217008 0.000200757
0.00133064 0.0025299 0.00223794 0.000200438
0.00135725 0.0025836 0.00230797 0.000199699
0.0013844 0.00263833 0.00237997 0.000198944
0.00141209 0.00269405 0.00245382 0.000198581
0.00144033 0.00275087 0.00252996 0.00019779
0.00146914 0.00280872 0.00260805 0.00019739
0.00149852 0.0028677 0.00268856 0.00019656
0.00152849 0.00292772 0.00277112 0.000196118
0.00155906 0.00298885 0.002856 0.000195653
0.00159024 0.00305117 0.00294349 0.000194759
0.00162204 0.00311456 0.0030332 0.000194246
0.00165449 0.0031791 0.00312544 0.00019371
0.00168758 0.00324475 0.00322003 0.000193553
0.00172133 0.00331164 0.00331749 0.000192963
0.00175575 0.00337973 0.00341766 0.000192347
0.00179087 0.00344901 0.00352061 0.000191703
0.00182669 0.00351947 0.00362622 0.000191435
0.00186322 0.00359122 0.00373496 0.000190732
0.00190048 0.00366417 0.00384651 0.000190406
0.00193849 0.00373838 0.00396114 0.000190047
0.00197726 0.00381388 0.00407895 0.000189658
0.00201681 0.00389067 0.00420001 0.000189238
0.00205714 0.00396879 0.00432441 0.000188785
0.00209829 0.00404823 0.00445223 0.000188299
0.00214025 0.00412902 0.00458357 0.000187781
0.00218306 0.00421117 0.00471851 0.000187228
0.00222672 0.00429465 0.00485695 0.000187046
0.00227125 0.00437958 0.0049994 0.000186425
0.00231668 0.00446586 0.00514553 0.000186174
0.00236301 0.00455357 0.00529566 0.000185888
0.00241027 0.0046428 0.00545011 0.000185163
0.00245848 0.00473343 0.00560856 0.000184806
0.00250765 0.00482554 0.00577133 0.000184412
0.0025578 0.00491916 0.00593854 0.000183983
0.00260896 0.00501423 0.00611008 0.000183919
0.00266114 0.0051109 0.00628651 0.000183417
0.00271436 0.00520913 0.00646773 0.000182878
0.00276865 0.00530887 0.00665365 0.000182704
0.00282402 0.00541021 0.00684462 0.000182492
0.0028805 0.00551323 0.00704098 0.000181843
0.00293811 0.00561782 0.00724244 0.000181557
0.00299687 0.00572406 0.00744935 0.000181235
0.00305681 0.00583198 0.00766186 0.000180874
0.00311794 0.00594159 0.0078801 0.000180477
0.0031803 0.00605292 0.00810423 0.000180041
0.00324391 0.00616592 0.00833419 0.000179969
0.00330879 0.00628075 0.00857056 0.000179459
0.00337496 0.00639729 0.00881309 0.000179311
0.00344246 0.0065157 0.00906235 0.000178726
0.00351131 0.00663587 0.00931809 0.000178503
0.00358154 0.00675788 0.00958071 0.000178243
0.00365317 0.00688177 0.00985038 0.000177945
0.00372623 0.00700754 0.0101273 0.00017761
0.00380076 0.00713524 0.0104116 0.000177237
0.00387677 0.00726481 0.0107033 0.000177227
0.00395431 0.00739641 0.0110031 0.000176779
0.00403339 0.00752999 0.0113108 0.000176295
0.00411406 0.00766553 0.0116266 0.000176174
0.00419634 0.00780311 0.0119508 0.000176015
0.00428027 0.00794281 0.0122838 0.00017542
0.00436588 0.00808455 0.0126256 0.000175188
0.00445319 0.0082284 0.0129764 0.00017492
0.00454226 0.00837439 0.0133366 0.000174616
0.0046331 0.00852256 0.0137063 0.000174274
0.00472576 0.00867292 0.0140859 0.000173898
0.00482028 0.00882544 0.0144754 0.000173884
0.00491668 0.00898029 0.0148754 0.000173436
0.00501502 0.00913735 0.0152859 0.000173352
0.00511532 0.0092968 0.0157074 0.000172832
0.00521763 0.00945851 0.0161399 0.000172677
0.00532198 0.0096226 0.0165838 0.000172487
0.00542842 0.0097891 0.0170395 0.000172264
0.00553699 0.00995802 0.0175072 0.000172005
0.00564773 0.0101294 0.0179874 0.000171712
0.00576068 0.0103033 0.0184801 0.000171385
0.00587589 0.0104797 0.0189859 0.000171025
0.00599341 0.0106587 0.0195051 0.00017063
0.00611328 0.0108402 0.0200377 0.000170601
0.00623555 0.0110244 0.0205845 0.000170142
0.00636026 0.0112112 0.0211456 0.000170047
0.00648746 0.0114007 0.0217213 0.00016992
0.00661721 0.011593 0.0223125 0.000169364
0.00674955 0.011788 0.0229189 0.000169172
0.00688455 0.0119859 0.0235413 0.00016895
0.00702224 0.0121865 0.02418 0.000168695
0.00716268 0.01239 0.0248355 0.000168409
0.00730594 0.0125965 0.0255082 0.000168094
0.00745205 0.0128058 0.0261982 0.000168146
0.0076011 0.0130182 0.0269065 0.000167767
0.00775312 0.0132336 0.0276333 0.000167361
0.00790818 0.0134521 0.028379 0.000167323
0.00806634 0.0136737 0.0291443 0.000166856
0.00822767 0.0138984 0.0299294 0.000166758
0.00839222 0.0141263 0.0307349 0.00016663
0.00856007 0.0143575 0.0315617 0.000166078
0.00873127 0.014592 0.0324098 0.000165893
0.00890589 0.0148297 0.03328 0.000165682
0.00908401 0.0150709 0.0341728 0.000165443
0.00926569 0.0153154 0.0350888 0.000165175
0.00945101 0.0155634 0.0360287 0.000164881
0.00964003 0.0158149 0.0369927 0.000164954
0.00983283 0.0160699 0.0379819 0.000164608
0.0100295 0.0163286 0.0389968 0.000164231
0.0102301 0.0165908 0.0400378 0.000164228
0.0104347 0.0168569 0.041106 0.000163801
0.0106434 0.0171265 0.0422016 0.000163744
0.0108562 0.0174001 0.0433258 0.000163267
0.0110734 0.0176775 0.0444788 0.000163159
0.0112948 0.0179587 0.0456616 0.000163028
0.0115207 0.018244 0.0468751 0.000162475
0.0117511 0.0185332 0.0481198 0.000162295
0.0119862 0.0188264 0.0493965 0.00016209
0.0122259 0.0191238 0.0507061 0.000161864
0.0124704 0.0194253 0.0520494 0.000161612
0.0127198 0.0197311 0.0534273 0.000161336
0.0129742 0.020041 0.0548405 0.000161435
0.0132337 0.0203554 0.0562901 0.000161114
0.0134984 0.0206742 0.057777 0.000160771
0.0137683 0.0209974 0.059302 0.000160404
0.0140437 0.021325 0.060866 0.000160414
0.0143246 0.0216573 0.0624702 0.000160004
0.0146111 0.0219942 0.0641153 0.000159969
0.0149033 0.0223358 0.0658028 0.000159517
0.0152014 0.0226822 0.0675331 0.000159441
0.0155054 0.0230333 0.0693078 0.00015934
0.0158155 0.0233894 0.0711279 0.000158827
0.0161318 0.0237504 0.0729944 0.000158687
0.0164544 0.0241164 0.0749084 0.000158529
0.0167835 0.0244875 0.0768713 0.000158349
0.0171192 0.0248637 0.0788842 0.000158151
0.0174616 0.0252451 0.0809482 0.000157933
0.0178108 0.0256319 0.0830649 0.000157695
0.018167 0.026024 0.0852353 0.00015744
0.0185304 0.0264215 0.087461 0.00015716
0.018901 0.0268245 0.0897431 0.000156869
0.019279 0.0272331 0.0920832 0.000156558
0.0196646 0.0276473 0.0944823 0.000156622
0.0200579 0.0280673 0.0969425 0.000156271
0.020459 0.028493 0.0994651 0.000155906
0.0208682 0.0289246 0.102051 0.000155918
0.0212856 0.0293622 0.104703 0.000155517
0.0217113 0.0298058 0.107422 0.000155494
0.0221455 0.0302555 0.110209 0.000155056
0.0225884 0.0307114 0.113067 0.000154998
0.0230402 0.0311736 0.115996 0.00015453
0.023501 0.031642 0.119 0.000154439
0.023971 0.032117 0.122079 0.000154332
0.0244504 0.0325984 0.125236 0.000154209
0.0249394 0.0330865 0.128472 0.000153677
0.0254382 0.0335813 0.13179 0.000153522
0.025947 0.0340828 0.135191 0.000153352
0.0264659 0.0345912 0.138677 0.000153166
0.0269952 0.0351065 0.14225 0.000152965
0.0275351 0.0356289 0.145913 0.000152748
0.0280858 0.0361584 0.149669 0.000152517
0.0286476 0.0366952 0.153517 0.000152271
0.0292205 0.0372393 0.157463 0.000152011
0.0298049 0.0377908 0.161507 0.000151736
0.030401 0.0383498 0.165651 0.000151446
0.031009 0.0389164 0.1699 0.000151143
0.0316292 0.0394907 0.174254 0.000151223
0.0322618 0.0400728 0.178717 0.000150891
0.032907 0.0406629 0.183291 0.000150545
0.0335652 0.0412609 0.187979 0.000150578
0.0342365 0.0418671 0.192783 0.000150205
0.0349212 0.0424815 0.197707 0.000149821
0.0356196 0.0431041 0.202753 0.000149818
0.036332 0.0437353 0.207925 0.000149408
0.0370587 0.0443748 0.213224 0.000149373
0.0377998 0.0450232 0.218655 0.000148935
0.0385558 0.0456801 0.22422 0.000148882
0.039327 0.0463461 0.229924 0.000148421
0.0401135 0.0470209 0.235768 0.000148342
0.0409158 0.0477048 0.241756 0.000148244
0.0417341 0.048398 0.247893 0.000147745
0.0425688 0.0491004 0.254181 0.00014763
0.0434201 0.0498122 0.260623 0.000147496
0.0442885 0.0505336 0.267225 0.000147358
0.0451743 0.0512648 0.273989 0.000146811
0.0460778 0.0520056 0.28092 0.00014664
0.0469994 0.0527564 0.28802 0.000146467
0.0479393 0.0535171 0.295295 0.000146273
0.0488981 0.0542881 0.302749 0.000146077
0.0498761 0.0550693 0.310385 0.00014587
0.0508736 0.055861 0.318209 0.000145642
0.0518911 0.0566631 0.326224 0.000145412
0.0529289 0.0574759 0.334435 0.000145161
0.0539875 0.0582996 0.342847 0.000144909
0.0550672 0.0591341 0.351464 0.000144638
0.0561686 0.0599797 0.360292 0.000144365
0.057292 0.0608365 0.369335 0.000144081
0.0584378 0.0617046 0.378598 0.000143777
0.0596066 0.0625842 0.388087 0.000143472
0.0607987 0.0634754 0.397806 0.000143144
0.0620147 0.0643782 0.407762 0.000143207
0.063255 0.065293 0.417959 0.00014287
0.0645201 0.0662199 0.428404 0.000142526
0.0658105 0.0671588 0.439102 0.000142156
0.0671267 0.0681101 0.45006 0.000142177
0.0684692 0.0690739 0.461282 0.0001418
0.0698386 0.0700502 0.472776 0.000141401
0.0712354 0.0710393 0.484548 0.000141389
0.0726601 0.0720413 0.496603 0.000140984
0.0741133 0.0730564 0.50895 0.000140568
0.0755955 0.0740846 0.521594 0.000140528
0.0771074 0.0751262 0.534542 0.000140078
0.0786496 0.0761813 0.547802 0.000140032
0.0802226 0.0772502 0.561381 0.000139563
0.081827 0.0783328 0.575286 0.000139483
0.0834636 0.0794294 0.589524 0.000139011
0.0851328 0.0805402 0.604104 0.00013891
0.0868355 0.0816654 0.619033 0.000138418
0.0885722 0.0828049 0.634318 0.0001383
0.0903437 0.0839591 0.64997 0.000138173
0.0921505 0.0851281 0.665995 0.000137653
0.0939935 0.0863121 0.682403 0.000137506
0.0958734 0.0875112 0.699202 0.00013735
0.0977909 0.0887257 0.7164 0.000136799
0.0997467 0.0899556 0.734008 0.000136624
0.101742 0.0912013 0.752035 0.00013644
0.103776 0.0924628 0.77049 0.000135864
0.105852 0.0937402 0.789382 0.00013566
0.107969 0.0950338 0.808722 0.000135447
0.110128 0.0963438 0.828521 0.000135224
0.112331 0.0976703 0.848787 0.000134995
0.114578 0.0990136 0.869532 0.000134374
0.116869 0.100374 0.890768 0.000134123
0.119207 0.101751 0.912504 0.000133862
0.121591 0.103146 0.934752 0.000133616
0.124022 0.104558 0.957524 0.000133337
0.126503 0.105987 0.980831 0.00013305
0.129033 0.107435 1.00469 0.000132751
0.131614 0.1089 1.0291 0.000132472
0.134246 0.110384 1.05409 0.000132157
0.136931 0.111886 1.07966 0.00013183
0.139669 0.113407 1.10583 0.000131496
0.142463 0.114947 1.13261 0.00013118
0.145312 0.116505 1.16002 0.000130827
0.148218 0.118083 1.18806 0.000130463
0.151183 0.11968 1.21676 0.000130093
0.154206 0.121297 1.24613 0.00012974
0.15729 0.122933 1.27618 0.00012935
0.160436 0.12459 1.30692 0.000128949
0.163645 0.126267 1.33838 0.000128538
0.166918 0.127964 1.37057 0.000128527
0.170256 0.129681 1.4035 0.000128095
0.173661 0.13142 1.4372 0.000127691
0.177135 0.13318 1.47167 0.000127243
0.180677 0.13496 1.50694 0.000126783
0.184291 0.136763 1.54302 0.000126352
0.187977 0.138587 1.57992 0.000126281
0.191736 0.140432 1.61768 0.000125795
0.195571 0.1423 1.65631 0.0001253
0.199482 0.14419 1.69582 0.0001252
0.203472 0.146103 1.73623 0.000124683
0.207541 0.148038 1.77757 0.000124195
0.211692 0.149997 1.81985 0.000123658
0.215926 0.151978 1.8631 0.000123522
0.220245 0.153983 1.90733 0.000122963
0.22465 0.156012 1.95257 0.00012244
0.229143 0.158064 1.99884 0.000122272
0.233725 0.16014 2.04615 0.000121685
0.2384 0.162241 2.09454 0.000121498
0.243168 0.164366 2.14403 0.000120889
0.248031 0.166516 2.19464 0.000120268
0.252992 0.16869 2.24639 0.00012005
0.258052 0.17089 2.2993 0.00011946
0.263213 0.173115 2.35341 0.00011922
0.268477 0.175366 2.40874 0.000118557
0.273847 0.177643 2.46531 0.000118298
0.279323 0.179946 2.52315 0.000117669
0.28491 0.182275 2.58229 0.000117387
0.290608 0.18463 2.64275 0.00011668
0.29642 0.187012 2.70456 0.000116376
0.302349 0.189422 2.76775 0.000116063
0.308396 0.191858 2.83235 0.000115321
0.314564 0.194322 2.89839 0.000114985
0.320855 0.196814 2.9659 0.000114284
0.327272 0.199333 3.03491 0.000113925
0.333817 0.201881 3.10545 0.000113137
0.340494 0.204457 3.17755 0.000112752
0.347304 0.207061 3.25125 0.000112358
0.35425 0.209695 3.32657 0.000111603
0.361335 0.212357 3.40355 0.000111185
0.368561 0.215049 3.48223 0.000110756
0.375933 0.217771 3.56264 0.000109893
0.383451 0.220522 3.64482 0.000109438
0.39112 0.223303 3.7288 0.00010897
0.398943 0.226114 3.81461 0.00010849
0.406922 0.228956 3.90231 0.000107656
0.41506 0.231829 3.99192 0.00010715
0.423361 0.234732 4.08348 0.000106632
0.431828 0.237667 4.17704 0.0001061
0.440465 0.240633 4.27263 0.00010522
0.449274 0.243631 4.3703 0.000104662
0.45826 0.246661 4.47008 0.000104091
0.467425 0.249723 4.57203 0.000103505
0.476773 0.252817 4.67618 0.000102905
0.486309 0.255944 4.78257 0.000101961
0.496035 0.259103 4.89126 0.000101333
0.505956 0.262296 5.00229 0.000100691
0.516075 0.265522 5.11571 0.000100035
0.526396 0.268782 5.23156 9.93629e-05
0.536924 0.272075 5.34989 9.8675e-05
0.547663 0.275403 5.47075 9.80809e-05
0.558616 0.278764 5.5942 9.73643e-05
0.569788 0.28216 5.72028 9.66311e-05
0.581184 0.285591 5.84904 9.54522e-05
0.592808 0.289057 5.98054 9.48043e-05
0.604664 0.292558 6.11484 9.40237e-05
0.616757 0.296094 6.25198 9.3226e-05
0.629092 0.299666 6.39202 9.24131e-05
0.641674 0.303274 6.53503 9.15809e-05
0.654508 0.306919 6.68105 9.0862e-05
0.667598 0.310599 6.83015 8.9997e-05
0.68095 0.314316 6.98238 8.91156e-05
0.694569 0.31807 7.13782 8.82138e-05
0.70846 0.321861 7.29651 8.7435e-05
0.722629 0.325689 7.45853 8.64999e-05
0.737082 0.329554 7.62393 8.55438e-05
0.751824 0.333458 7.79279 8.4568e-05
0.76686 0.337399 7.96517 8.40141e-05
0.782197 0.341379 8.14114 8.31553e-05
0.797841 0.345397 8.32077 8.21223e-05
0.813798 0.349453 8.50412 8.10705e-05
0.830074 0.353549 8.69127 8.01614e-05
0.846676 0.357683 8.88228 7.90697e-05
0.863609 0.361857 9.07725 7.79548e-05
0.880881 0.366071 9.27624 7.68175e-05
0.898499 0.370324 9.47932 7.5839e-05
0.916469 0.374618 9.68658 7.51051e-05
0.934798 0.378951 9.8981 7.39042e-05
0.953494 0.383325 10.1139 7.26783e-05
0.972564 0.38774 10.3342 7.16226e-05
0.992015 0.392196 10.559 7.03537e-05
1.01186 0.396692 10.7883 6.90574e-05
1.03209 0.401231 11.0224 6.83929e-05
1.05273 0.405811 11.2611 6.70508e-05
1.07379 0.410432 11.5048 6.56829e-05
1.09527 0.415096 11.7533 6.45066e-05
1.11717 0.419802 12.0069 6.30899e-05
1.13951 0.42455 12.2657 6.20952e-05
1.1623 0.429341 12.5296 6.08553e-05
1.18555 0.434175 12.7989 5.93572e-05
1.20926 0.439052 13.0736 5.78317e-05
1.23345 0.443973 13.3538 5.69753e-05
1.25812 0.448937 13.6396 5.53947e-05
1.28328 0.453945 13.9312 5.40386e-05
1.30894 0.458997 14.2286 5.28572e-05
1.33512 0.464093 14.5319 5.11863e-05
1.36182 0.469234 14.8413 4.97574e-05
1.38906 0.474419 15.1568 4.84838e-05
1.41684 0.479649 15.4786 4.70041e-05
1.44518 0.484925 15.8068 4.52125e-05
1.47408 0.490245 16.1415 4.38433e-05
1.50356 0.495612 16.4829 4.22822e-05
1.53364 0.501024 16.831 4.03881e-05
1.56431 0.506482 17.1859 3.92313e-05
1.59559 0.511986 17.5479 3.72704e-05
1.62751 0.517538 17.917 3.55949e-05
1.66006 0.523135 18.2933 3.40237e-05
1.69326 0.528779 18.677 3.2289e-05
1.72712 0.534471 19.0682 3.01827e-05
1.76167 0.54021 19.4671 2.88488e-05
1.7969 0.545996 19.8738 2.66645e-05
1.83284 0.551831 20.2885 2.52673e-05
1.86949 0.557713 20.7112 2.30032e-05
1.90688 0.563644 21.1421 2.15395e-05
1.94502 0.569623 21.5815 1.91918e-05
1.98392 0.575651 22.0293 1.71935e-05
2.0236 0.581728 22.4858 1.52237e-05
2.06407 0.587854 22.9512 1.31529e-05
2.10535 0.594029 23.4256 1.10924e-05
2.14746 0.600254 23.9091 8.94533e-06
2.19041 0.606529 24.402 7.22864e-06
2.23422 0.612853 24.9043 4.56365e-06
2.2789 0.619229 25.4163 2.76615e-06
2.32448 0.625654 25.9382 0
